%YAML 1.1
%TAG !u! tag:unity3d.com,2011:
--- !u!1001 &7498361642790279445
PrefabInstance:
  m_ObjectHideFlags: 0
  serializedVersion: 2
  m_Modification:
    m_TransformParent: {fileID: 0}
    m_Modifications:
    - target: {fileID: 8398678831854764622, guid: a3c2cd94983ddf04c8184883b0295e61,
        type: 3}
      propertyPath: m_Name
      value: MiddleWall15 Variant
      objectReference: {fileID: 0}
    - target: {fileID: 542194067933927691, guid: a3c2cd94983ddf04c8184883b0295e61,
        type: 3}
      propertyPath: m_LocalPosition.x
      value: -99.7
      objectReference: {fileID: 0}
    - target: {fileID: 542194067933927691, guid: a3c2cd94983ddf04c8184883b0295e61,
        type: 3}
      propertyPath: m_LocalPosition.y
      value: -229.3125
      objectReference: {fileID: 0}
    - target: {fileID: 542194067933927691, guid: a3c2cd94983ddf04c8184883b0295e61,
        type: 3}
      propertyPath: m_LocalPosition.z
      value: 17.6
      objectReference: {fileID: 0}
    - target: {fileID: 542194067933927691, guid: a3c2cd94983ddf04c8184883b0295e61,
        type: 3}
      propertyPath: m_LocalRotation.x
      value: 0
      objectReference: {fileID: 0}
    - target: {fileID: 542194067933927691, guid: a3c2cd94983ddf04c8184883b0295e61,
        type: 3}
      propertyPath: m_LocalRotation.y
      value: 0
      objectReference: {fileID: 0}
    - target: {fileID: 542194067933927691, guid: a3c2cd94983ddf04c8184883b0295e61,
        type: 3}
      propertyPath: m_LocalRotation.z
      value: 0
      objectReference: {fileID: 0}
    - target: {fileID: 542194067933927691, guid: a3c2cd94983ddf04c8184883b0295e61,
        type: 3}
      propertyPath: m_LocalRotation.w
      value: 1
      objectReference: {fileID: 0}
    - target: {fileID: 542194067933927691, guid: a3c2cd94983ddf04c8184883b0295e61,
        type: 3}
      propertyPath: m_RootOrder
      value: 0
      objectReference: {fileID: 0}
    - target: {fileID: 542194067933927691, guid: a3c2cd94983ddf04c8184883b0295e61,
        type: 3}
      propertyPath: m_LocalEulerAnglesHint.x
      value: 0
      objectReference: {fileID: 0}
    - target: {fileID: 542194067933927691, guid: a3c2cd94983ddf04c8184883b0295e61,
        type: 3}
      propertyPath: m_LocalEulerAnglesHint.y
      value: 0
      objectReference: {fileID: 0}
    - target: {fileID: 542194067933927691, guid: a3c2cd94983ddf04c8184883b0295e61,
        type: 3}
      propertyPath: m_LocalEulerAnglesHint.z
      value: 0
      objectReference: {fileID: 0}
    - target: {fileID: 542194067933927691, guid: a3c2cd94983ddf04c8184883b0295e61,
        type: 3}
      propertyPath: m_LocalScale.x
      value: 15
      objectReference: {fileID: 0}
    - target: {fileID: 9088785401640471077, guid: a3c2cd94983ddf04c8184883b0295e61,
        type: 3}
      propertyPath: m_Materials.Array.data[0]
      value: 
      objectReference: {fileID: 2100000, guid: 6c61187ac153b8044b42091b1aa92dfd, type: 2}
    m_RemovedComponents: []
  m_SourcePrefab: {fileID: 100100000, guid: a3c2cd94983ddf04c8184883b0295e61, type: 3}
