%YAML 1.1
%TAG !u! tag:unity3d.com,2011:
--- !u!29 &1
OcclusionCullingSettings:
  m_ObjectHideFlags: 0
  serializedVersion: 2
  m_OcclusionBakeSettings:
    smallestOccluder: 5
    smallestHole: 0.25
    backfaceThreshold: 100
  m_SceneGUID: 00000000000000000000000000000000
  m_OcclusionCullingData: {fileID: 0}
--- !u!104 &2
RenderSettings:
  m_ObjectHideFlags: 0
  serializedVersion: 9
  m_Fog: 0
  m_FogColor: {r: 0.5, g: 0.5, b: 0.5, a: 1}
  m_FogMode: 3
  m_FogDensity: 0.01
  m_LinearFogStart: 0
  m_LinearFogEnd: 300
  m_AmbientSkyColor: {r: 0.212, g: 0.227, b: 0.259, a: 1}
  m_AmbientEquatorColor: {r: 0.114, g: 0.125, b: 0.133, a: 1}
  m_AmbientGroundColor: {r: 0.047, g: 0.043, b: 0.035, a: 1}
  m_AmbientIntensity: 1
  m_AmbientMode: 0
  m_SubtractiveShadowColor: {r: 0.42, g: 0.478, b: 0.627, a: 1}
  m_SkyboxMaterial: {fileID: 10304, guid: 0000000000000000f000000000000000, type: 0}
  m_HaloStrength: 0.5
  m_FlareStrength: 1
  m_FlareFadeSpeed: 3
  m_HaloTexture: {fileID: 0}
  m_SpotCookie: {fileID: 10001, guid: 0000000000000000e000000000000000, type: 0}
  m_DefaultReflectionMode: 0
  m_DefaultReflectionResolution: 128
  m_ReflectionBounces: 1
  m_ReflectionIntensity: 1
  m_CustomReflection: {fileID: 0}
  m_Sun: {fileID: 0}
  m_IndirectSpecularColor: {r: 0, g: 0, b: 0, a: 1}
  m_UseRadianceAmbientProbe: 0
--- !u!157 &3
LightmapSettings:
  m_ObjectHideFlags: 0
  serializedVersion: 12
  m_GIWorkflowMode: 0
  m_GISettings:
    serializedVersion: 2
    m_BounceScale: 1
    m_IndirectOutputScale: 1
    m_AlbedoBoost: 1
    m_EnvironmentLightingMode: 0
    m_EnableBakedLightmaps: 1
    m_EnableRealtimeLightmaps: 1
  m_LightmapEditorSettings:
    serializedVersion: 12
    m_Resolution: 2
    m_BakeResolution: 40
    m_AtlasSize: 1024
    m_AO: 0
    m_AOMaxDistance: 1
    m_CompAOExponent: 1
    m_CompAOExponentDirect: 0
    m_ExtractAmbientOcclusion: 0
    m_Padding: 2
    m_LightmapParameters: {fileID: 0}
    m_LightmapsBakeMode: 1
    m_TextureCompression: 1
    m_FinalGather: 0
    m_FinalGatherFiltering: 1
    m_FinalGatherRayCount: 256
    m_ReflectionCompression: 2
    m_MixedBakeMode: 2
    m_BakeBackend: 0
    m_PVRSampling: 1
    m_PVRDirectSampleCount: 32
    m_PVRSampleCount: 500
    m_PVRBounces: 2
    m_PVREnvironmentSampleCount: 500
    m_PVREnvironmentReferencePointCount: 2048
    m_PVRFilteringMode: 2
    m_PVRDenoiserTypeDirect: 0
    m_PVRDenoiserTypeIndirect: 0
    m_PVRDenoiserTypeAO: 0
    m_PVRFilterTypeDirect: 0
    m_PVRFilterTypeIndirect: 0
    m_PVRFilterTypeAO: 0
    m_PVREnvironmentMIS: 0
    m_PVRCulling: 1
    m_PVRFilteringGaussRadiusDirect: 1
    m_PVRFilteringGaussRadiusIndirect: 5
    m_PVRFilteringGaussRadiusAO: 2
    m_PVRFilteringAtrousPositionSigmaDirect: 0.5
    m_PVRFilteringAtrousPositionSigmaIndirect: 2
    m_PVRFilteringAtrousPositionSigmaAO: 1
    m_ExportTrainingData: 0
    m_TrainingDataDestination: TrainingData
    m_LightProbeSampleCountMultiplier: 4
  m_LightingDataAsset: {fileID: 0}
  m_LightingSettings: {fileID: 4890085278179872738, guid: 8dd06732a16ac44f591093356c345012, type: 2}
--- !u!196 &4
NavMeshSettings:
  serializedVersion: 2
  m_ObjectHideFlags: 0
  m_BuildSettings:
    serializedVersion: 2
    agentTypeID: 0
    agentRadius: 0.5
    agentHeight: 2
    agentSlope: 45
    agentClimb: 0.4
    ledgeDropHeight: 0
    maxJumpAcrossDistance: 0
    minRegionArea: 2
    manualCellSize: 0
    cellSize: 0.16666667
    manualTileSize: 0
    tileSize: 256
    accuratePlacement: 0
    maxJobWorkers: 0
    preserveTilesOutsideBounds: 0
    debug:
      m_Flags: 0
  m_NavMeshData: {fileID: 0}
--- !u!1001 &218156929
PrefabInstance:
  m_ObjectHideFlags: 0
  serializedVersion: 2
  m_Modification:
    m_TransformParent: {fileID: 743234679}
    m_Modifications:
    - target: {fileID: 4652387992457812, guid: 28f60661728ddb148a424ba31b70ccc4, type: 3}
      propertyPath: m_LocalPosition.x
      value: 4.335
      objectReference: {fileID: 0}
    - target: {fileID: 4652387992457812, guid: 28f60661728ddb148a424ba31b70ccc4, type: 3}
      propertyPath: m_LocalPosition.y
      value: 0
      objectReference: {fileID: 0}
    - target: {fileID: 4652387992457812, guid: 28f60661728ddb148a424ba31b70ccc4, type: 3}
      propertyPath: m_LocalPosition.z
      value: -9.469
      objectReference: {fileID: 0}
    - target: {fileID: 4652387992457812, guid: 28f60661728ddb148a424ba31b70ccc4, type: 3}
      propertyPath: m_LocalRotation.x
      value: 0.00000002182648
      objectReference: {fileID: 0}
    - target: {fileID: 4652387992457812, guid: 28f60661728ddb148a424ba31b70ccc4, type: 3}
      propertyPath: m_LocalRotation.y
      value: 0.051687505
      objectReference: {fileID: 0}
    - target: {fileID: 4652387992457812, guid: 28f60661728ddb148a424ba31b70ccc4, type: 3}
      propertyPath: m_LocalRotation.z
      value: 0.0000000011296658
      objectReference: {fileID: 0}
    - target: {fileID: 4652387992457812, guid: 28f60661728ddb148a424ba31b70ccc4, type: 3}
      propertyPath: m_LocalRotation.w
      value: 0.9986633
      objectReference: {fileID: 0}
    - target: {fileID: 4652387992457812, guid: 28f60661728ddb148a424ba31b70ccc4, type: 3}
      propertyPath: m_RootOrder
      value: 4
      objectReference: {fileID: 0}
    - target: {fileID: 4652387992457812, guid: 28f60661728ddb148a424ba31b70ccc4, type: 3}
      propertyPath: m_LocalEulerAnglesHint.y
      value: 5.926
      objectReference: {fileID: 0}
    m_RemovedComponents: []
  m_SourcePrefab: {fileID: 100100000, guid: 28f60661728ddb148a424ba31b70ccc4, type: 3}
--- !u!4 &218156930 stripped
Transform:
  m_CorrespondingSourceObject: {fileID: 4652387992457812, guid: 28f60661728ddb148a424ba31b70ccc4, type: 3}
  m_PrefabInstance: {fileID: 218156929}
  m_PrefabAsset: {fileID: 0}
--- !u!1001 &551594602
PrefabInstance:
  m_ObjectHideFlags: 0
  serializedVersion: 2
  m_Modification:
    m_TransformParent: {fileID: 743234679}
    m_Modifications:
    - target: {fileID: 4069650745568022, guid: 13f47203b7fe8ff479a289d12f2f47ed, type: 3}
      propertyPath: m_LocalPosition.x
      value: -1.08
      objectReference: {fileID: 0}
    - target: {fileID: 4069650745568022, guid: 13f47203b7fe8ff479a289d12f2f47ed, type: 3}
      propertyPath: m_LocalPosition.y
      value: 0
      objectReference: {fileID: 0}
    - target: {fileID: 4069650745568022, guid: 13f47203b7fe8ff479a289d12f2f47ed, type: 3}
      propertyPath: m_LocalPosition.z
      value: 0.95
      objectReference: {fileID: 0}
    - target: {fileID: 4069650745568022, guid: 13f47203b7fe8ff479a289d12f2f47ed, type: 3}
      propertyPath: m_LocalRotation.x
      value: 0.000000021855694
      objectReference: {fileID: 0}
    - target: {fileID: 4069650745568022, guid: 13f47203b7fe8ff479a289d12f2f47ed, type: 3}
      propertyPath: m_LocalRotation.y
      value: -0
      objectReference: {fileID: 0}
    - target: {fileID: 4069650745568022, guid: 13f47203b7fe8ff479a289d12f2f47ed, type: 3}
      propertyPath: m_LocalRotation.z
      value: -0
      objectReference: {fileID: 0}
    - target: {fileID: 4069650745568022, guid: 13f47203b7fe8ff479a289d12f2f47ed, type: 3}
      propertyPath: m_LocalRotation.w
      value: 1
      objectReference: {fileID: 0}
    - target: {fileID: 4069650745568022, guid: 13f47203b7fe8ff479a289d12f2f47ed, type: 3}
      propertyPath: m_RootOrder
      value: 8
      objectReference: {fileID: 0}
    m_RemovedComponents: []
  m_SourcePrefab: {fileID: 100100000, guid: 13f47203b7fe8ff479a289d12f2f47ed, type: 3}
--- !u!4 &551594603 stripped
Transform:
  m_CorrespondingSourceObject: {fileID: 4069650745568022, guid: 13f47203b7fe8ff479a289d12f2f47ed, type: 3}
  m_PrefabInstance: {fileID: 551594602}
  m_PrefabAsset: {fileID: 0}
--- !u!1001 &621420809
PrefabInstance:
  m_ObjectHideFlags: 0
  serializedVersion: 2
  m_Modification:
    m_TransformParent: {fileID: 743234679}
    m_Modifications:
    - target: {fileID: 4460223058229694, guid: e7943b8da41d75045a6bd919f15691ec, type: 3}
      propertyPath: m_LocalPosition.x
      value: 3.169
      objectReference: {fileID: 0}
    - target: {fileID: 4460223058229694, guid: e7943b8da41d75045a6bd919f15691ec, type: 3}
      propertyPath: m_LocalPosition.y
      value: 0
      objectReference: {fileID: 0}
    - target: {fileID: 4460223058229694, guid: e7943b8da41d75045a6bd919f15691ec, type: 3}
      propertyPath: m_LocalPosition.z
      value: -9.551
      objectReference: {fileID: 0}
    - target: {fileID: 4460223058229694, guid: e7943b8da41d75045a6bd919f15691ec, type: 3}
      propertyPath: m_LocalRotation.x
      value: 0.000000021714179
      objectReference: {fileID: 0}
    - target: {fileID: 4460223058229694, guid: e7943b8da41d75045a6bd919f15691ec, type: 3}
      propertyPath: m_LocalRotation.y
      value: 0.113613926
      objectReference: {fileID: 0}
    - target: {fileID: 4460223058229694, guid: e7943b8da41d75045a6bd919f15691ec, type: 3}
      propertyPath: m_LocalRotation.z
      value: 0.0000000024831135
      objectReference: {fileID: 0}
    - target: {fileID: 4460223058229694, guid: e7943b8da41d75045a6bd919f15691ec, type: 3}
      propertyPath: m_LocalRotation.w
      value: 0.993525
      objectReference: {fileID: 0}
    - target: {fileID: 4460223058229694, guid: e7943b8da41d75045a6bd919f15691ec, type: 3}
      propertyPath: m_RootOrder
      value: 5
      objectReference: {fileID: 0}
    - target: {fileID: 4460223058229694, guid: e7943b8da41d75045a6bd919f15691ec, type: 3}
      propertyPath: m_LocalEulerAnglesHint.y
      value: 13.047001
      objectReference: {fileID: 0}
    m_RemovedComponents: []
  m_SourcePrefab: {fileID: 100100000, guid: e7943b8da41d75045a6bd919f15691ec, type: 3}
--- !u!4 &621420810 stripped
Transform:
  m_CorrespondingSourceObject: {fileID: 4460223058229694, guid: e7943b8da41d75045a6bd919f15691ec, type: 3}
  m_PrefabInstance: {fileID: 621420809}
  m_PrefabAsset: {fileID: 0}
--- !u!1 &626696607
GameObject:
  m_ObjectHideFlags: 0
  m_CorrespondingSourceObject: {fileID: 0}
  m_PrefabInstance: {fileID: 0}
  m_PrefabAsset: {fileID: 0}
  serializedVersion: 6
  m_Component:
  - component: {fileID: 626696612}
  - component: {fileID: 626696611}
  - component: {fileID: 626696609}
  - component: {fileID: 626696608}
  m_Layer: 0
  m_Name: Main Camera
  m_TagString: MainCamera
  m_Icon: {fileID: 0}
  m_NavMeshLayer: 0
  m_StaticEditorFlags: 0
  m_IsActive: 1
--- !u!81 &626696608
AudioListener:
  m_ObjectHideFlags: 0
  m_CorrespondingSourceObject: {fileID: 0}
  m_PrefabInstance: {fileID: 0}
  m_PrefabAsset: {fileID: 0}
  m_GameObject: {fileID: 626696607}
  m_Enabled: 1
--- !u!124 &626696609
Behaviour:
  m_ObjectHideFlags: 0
  m_CorrespondingSourceObject: {fileID: 0}
  m_PrefabInstance: {fileID: 0}
  m_PrefabAsset: {fileID: 0}
  m_GameObject: {fileID: 626696607}
  m_Enabled: 1
--- !u!20 &626696611
Camera:
  m_ObjectHideFlags: 0
  m_CorrespondingSourceObject: {fileID: 0}
  m_PrefabInstance: {fileID: 0}
  m_PrefabAsset: {fileID: 0}
  m_GameObject: {fileID: 626696607}
  m_Enabled: 1
  serializedVersion: 2
  m_ClearFlags: 1
  m_BackGroundColor: {r: 0.19215687, g: 0.3019608, b: 0.4745098, a: 0}
  m_projectionMatrixMode: 1
  m_GateFitMode: 2
  m_FOVAxisMode: 0
  m_SensorSize: {x: 36, y: 24}
  m_LensShift: {x: 0, y: 0}
  m_FocalLength: 50
  m_NormalizedViewPortRect:
    serializedVersion: 2
    x: 0
    y: 0
    width: 1
    height: 1
  near clip plane: 0.3
  far clip plane: 1000
  field of view: 60
  orthographic: 0
  orthographic size: 5
  m_Depth: -1
  m_CullingMask:
    serializedVersion: 2
    m_Bits: 4294967295
  m_RenderingPath: -1
  m_TargetTexture: {fileID: 0}
  m_TargetDisplay: 0
  m_TargetEye: 3
  m_HDR: 1
  m_AllowMSAA: 1
  m_AllowDynamicResolution: 0
  m_ForceIntoRT: 0
  m_OcclusionCulling: 1
  m_StereoConvergence: 10
  m_StereoSeparation: 0.022
--- !u!4 &626696612
Transform:
  m_ObjectHideFlags: 0
  m_CorrespondingSourceObject: {fileID: 0}
  m_PrefabInstance: {fileID: 0}
  m_PrefabAsset: {fileID: 0}
  m_GameObject: {fileID: 626696607}
  m_LocalRotation: {x: 0, y: 0, z: 0, w: 1}
  m_LocalPosition: {x: 0, y: 1, z: -10}
  m_LocalScale: {x: 1, y: 1, z: 1}
  m_Children: []
  m_Father: {fileID: 0}
  m_RootOrder: 0
  m_LocalEulerAnglesHint: {x: 0, y: 0, z: 0}
--- !u!1001 &639750257
PrefabInstance:
  m_ObjectHideFlags: 0
  serializedVersion: 2
  m_Modification:
    m_TransformParent: {fileID: 743234679}
    m_Modifications:
    - target: {fileID: 4934219150772252, guid: 07232b84fecc54e45b2e071b6885bb96, type: 3}
      propertyPath: m_LocalPosition.x
      value: -1.5800004
      objectReference: {fileID: 0}
    - target: {fileID: 4934219150772252, guid: 07232b84fecc54e45b2e071b6885bb96, type: 3}
      propertyPath: m_LocalPosition.y
      value: 0
      objectReference: {fileID: 0}
    - target: {fileID: 4934219150772252, guid: 07232b84fecc54e45b2e071b6885bb96, type: 3}
      propertyPath: m_LocalPosition.z
      value: 5.474
      objectReference: {fileID: 0}
    - target: {fileID: 4934219150772252, guid: 07232b84fecc54e45b2e071b6885bb96, type: 3}
      propertyPath: m_LocalRotation.x
      value: 0.000000021855694
      objectReference: {fileID: 0}
    - target: {fileID: 4934219150772252, guid: 07232b84fecc54e45b2e071b6885bb96, type: 3}
      propertyPath: m_LocalRotation.y
      value: 0
      objectReference: {fileID: 0}
    - target: {fileID: 4934219150772252, guid: 07232b84fecc54e45b2e071b6885bb96, type: 3}
      propertyPath: m_LocalRotation.z
      value: -0
      objectReference: {fileID: 0}
    - target: {fileID: 4934219150772252, guid: 07232b84fecc54e45b2e071b6885bb96, type: 3}
      propertyPath: m_LocalRotation.w
      value: 1
      objectReference: {fileID: 0}
    - target: {fileID: 4934219150772252, guid: 07232b84fecc54e45b2e071b6885bb96, type: 3}
      propertyPath: m_RootOrder
      value: 9
      objectReference: {fileID: 0}
    m_RemovedComponents: []
  m_SourcePrefab: {fileID: 100100000, guid: 07232b84fecc54e45b2e071b6885bb96, type: 3}
--- !u!4 &639750258 stripped
Transform:
  m_CorrespondingSourceObject: {fileID: 4934219150772252, guid: 07232b84fecc54e45b2e071b6885bb96, type: 3}
  m_PrefabInstance: {fileID: 639750257}
  m_PrefabAsset: {fileID: 0}
--- !u!1001 &680953777
PrefabInstance:
  m_ObjectHideFlags: 0
  serializedVersion: 2
  m_Modification:
    m_TransformParent: {fileID: 743234679}
    m_Modifications:
    - target: {fileID: 4179565050224946, guid: a2fbc4036fe0e9f40899ea784ee93073, type: 3}
      propertyPath: m_LocalPosition.x
      value: 3.557928
      objectReference: {fileID: 0}
    - target: {fileID: 4179565050224946, guid: a2fbc4036fe0e9f40899ea784ee93073, type: 3}
      propertyPath: m_LocalPosition.y
      value: 0
      objectReference: {fileID: 0}
    - target: {fileID: 4179565050224946, guid: a2fbc4036fe0e9f40899ea784ee93073, type: 3}
      propertyPath: m_LocalPosition.z
      value: -5.2380238
      objectReference: {fileID: 0}
    - target: {fileID: 4179565050224946, guid: a2fbc4036fe0e9f40899ea784ee93073, type: 3}
      propertyPath: m_LocalRotation.x
      value: 0.000000021855694
      objectReference: {fileID: 0}
    - target: {fileID: 4179565050224946, guid: a2fbc4036fe0e9f40899ea784ee93073, type: 3}
      propertyPath: m_LocalRotation.y
      value: 0
      objectReference: {fileID: 0}
    - target: {fileID: 4179565050224946, guid: a2fbc4036fe0e9f40899ea784ee93073, type: 3}
      propertyPath: m_LocalRotation.z
      value: -0
      objectReference: {fileID: 0}
    - target: {fileID: 4179565050224946, guid: a2fbc4036fe0e9f40899ea784ee93073, type: 3}
      propertyPath: m_LocalRotation.w
      value: 1
      objectReference: {fileID: 0}
    - target: {fileID: 4179565050224946, guid: a2fbc4036fe0e9f40899ea784ee93073, type: 3}
      propertyPath: m_RootOrder
      value: 3
      objectReference: {fileID: 0}
    m_RemovedComponents: []
  m_SourcePrefab: {fileID: 100100000, guid: a2fbc4036fe0e9f40899ea784ee93073, type: 3}
--- !u!4 &680953778 stripped
Transform:
  m_CorrespondingSourceObject: {fileID: 4179565050224946, guid: a2fbc4036fe0e9f40899ea784ee93073, type: 3}
  m_PrefabInstance: {fileID: 680953777}
  m_PrefabAsset: {fileID: 0}
--- !u!1 &743234678
GameObject:
  m_ObjectHideFlags: 0
  m_CorrespondingSourceObject: {fileID: 100012, guid: 11513268302b562498f3c140346b22c8, type: 3}
  m_PrefabInstance: {fileID: 0}
  m_PrefabAsset: {fileID: 0}
  serializedVersion: 6
  m_Component:
  - component: {fileID: 743234679}
  m_Layer: 0
  m_Name: Forest_pack_models_set
  m_TagString: Untagged
  m_Icon: {fileID: 0}
  m_NavMeshLayer: 0
  m_StaticEditorFlags: 0
  m_IsActive: 1
--- !u!4 &743234679
Transform:
  m_ObjectHideFlags: 0
  m_CorrespondingSourceObject: {fileID: 400012, guid: 11513268302b562498f3c140346b22c8, type: 3}
  m_PrefabInstance: {fileID: 0}
  m_PrefabAsset: {fileID: 0}
  m_GameObject: {fileID: 743234678}
  m_LocalRotation: {x: 0, y: 0, z: 0, w: 1}
  m_LocalPosition: {x: 0, y: 0, z: 0}
  m_LocalScale: {x: 1, y: 1, z: 1}
  m_Children:
  - {fileID: 1545888558}
  - {fileID: 990692065}
  - {fileID: 1341829248}
  - {fileID: 680953778}
  - {fileID: 218156930}
  - {fileID: 621420810}
  - {fileID: 1660981606}
  - {fileID: 813399752}
  - {fileID: 551594603}
  - {fileID: 639750258}
  m_Father: {fileID: 0}
  m_RootOrder: 2
  m_LocalEulerAnglesHint: {x: 0, y: 0, z: 0}
--- !u!1001 &813399751
PrefabInstance:
  m_ObjectHideFlags: 0
  serializedVersion: 2
  m_Modification:
    m_TransformParent: {fileID: 743234679}
    m_Modifications:
    - target: {fileID: 4441684109807196, guid: bca1934b3991fe648b8181db36dfcfcb, type: 3}
      propertyPath: m_LocalPosition.x
      value: 1.929
      objectReference: {fileID: 0}
    - target: {fileID: 4441684109807196, guid: bca1934b3991fe648b8181db36dfcfcb, type: 3}
      propertyPath: m_LocalPosition.y
      value: 0
      objectReference: {fileID: 0}
    - target: {fileID: 4441684109807196, guid: bca1934b3991fe648b8181db36dfcfcb, type: 3}
      propertyPath: m_LocalPosition.z
      value: -9.551
      objectReference: {fileID: 0}
    - target: {fileID: 4441684109807196, guid: bca1934b3991fe648b8181db36dfcfcb, type: 3}
      propertyPath: m_LocalRotation.x
      value: 0.000000021840815
      objectReference: {fileID: 0}
    - target: {fileID: 4441684109807196, guid: bca1934b3991fe648b8181db36dfcfcb, type: 3}
      propertyPath: m_LocalRotation.y
      value: -0.03689812
      objectReference: {fileID: 0}
    - target: {fileID: 4441684109807196, guid: bca1934b3991fe648b8181db36dfcfcb, type: 3}
      propertyPath: m_LocalRotation.z
      value: -8.064344e-10
      objectReference: {fileID: 0}
    - target: {fileID: 4441684109807196, guid: bca1934b3991fe648b8181db36dfcfcb, type: 3}
      propertyPath: m_LocalRotation.w
      value: 0.999319
      objectReference: {fileID: 0}
    - target: {fileID: 4441684109807196, guid: bca1934b3991fe648b8181db36dfcfcb, type: 3}
      propertyPath: m_RootOrder
      value: 7
      objectReference: {fileID: 0}
    - target: {fileID: 4441684109807196, guid: bca1934b3991fe648b8181db36dfcfcb, type: 3}
      propertyPath: m_LocalEulerAnglesHint.y
      value: -4.229
      objectReference: {fileID: 0}
    m_RemovedComponents: []
  m_SourcePrefab: {fileID: 100100000, guid: bca1934b3991fe648b8181db36dfcfcb, type: 3}
--- !u!4 &813399752 stripped
Transform:
  m_CorrespondingSourceObject: {fileID: 4441684109807196, guid: bca1934b3991fe648b8181db36dfcfcb, type: 3}
  m_PrefabInstance: {fileID: 813399751}
  m_PrefabAsset: {fileID: 0}
--- !u!1 &902816472
GameObject:
  m_ObjectHideFlags: 0
  m_CorrespondingSourceObject: {fileID: 0}
  m_PrefabInstance: {fileID: 0}
  m_PrefabAsset: {fileID: 0}
  serializedVersion: 6
  m_Component:
  - component: {fileID: 902816474}
  - component: {fileID: 902816473}
  m_Layer: 0
  m_Name: Directional Light
  m_TagString: Untagged
  m_Icon: {fileID: 0}
  m_NavMeshLayer: 0
  m_StaticEditorFlags: 0
  m_IsActive: 1
--- !u!108 &902816473
Light:
  m_ObjectHideFlags: 0
  m_CorrespondingSourceObject: {fileID: 0}
  m_PrefabInstance: {fileID: 0}
  m_PrefabAsset: {fileID: 0}
  m_GameObject: {fileID: 902816472}
  m_Enabled: 1
  serializedVersion: 10
  m_Type: 1
  m_Shape: 0
  m_Color: {r: 1, g: 0.95686275, b: 0.8392157, a: 1}
  m_Intensity: 1
  m_Range: 10
  m_SpotAngle: 30
  m_InnerSpotAngle: 21.802082
  m_CookieSize: 10
  m_Shadows:
    m_Type: 2
    m_Resolution: -1
    m_CustomResolution: -1
    m_Strength: 1
    m_Bias: 0.05
    m_NormalBias: 0.4
    m_NearPlane: 0.2
    m_CullingMatrixOverride:
      e00: 1
      e01: 0
      e02: 0
      e03: 0
      e10: 0
      e11: 1
      e12: 0
      e13: 0
      e20: 0
      e21: 0
      e22: 1
      e23: 0
      e30: 0
      e31: 0
      e32: 0
      e33: 1
    m_UseCullingMatrixOverride: 0
  m_Cookie: {fileID: 0}
  m_DrawHalo: 0
  m_Flare: {fileID: 0}
  m_RenderMode: 0
  m_CullingMask:
    serializedVersion: 2
    m_Bits: 4294967295
  m_RenderingLayerMask: 1
  m_Lightmapping: 4
  m_LightShadowCasterMode: 0
  m_AreaSize: {x: 1, y: 1}
  m_BounceIntensity: 1
  m_ColorTemperature: 6570
  m_UseColorTemperature: 0
  m_BoundingSphereOverride: {x: 0, y: 0, z: 0, w: 0}
  m_UseBoundingSphereOverride: 0
  m_ShadowRadius: 0
  m_ShadowAngle: 0
--- !u!4 &902816474
Transform:
  m_ObjectHideFlags: 0
  m_CorrespondingSourceObject: {fileID: 0}
  m_PrefabInstance: {fileID: 0}
  m_PrefabAsset: {fileID: 0}
  m_GameObject: {fileID: 902816472}
  m_LocalRotation: {x: 0.40821788, y: -0.23456968, z: 0.10938163, w: 0.8754261}
  m_LocalPosition: {x: 0, y: 3, z: 0}
  m_LocalScale: {x: 1, y: 1, z: 1}
  m_Children: []
  m_Father: {fileID: 0}
  m_RootOrder: 1
  m_LocalEulerAnglesHint: {x: 50, y: -30, z: 0}
--- !u!1001 &990692064
PrefabInstance:
  m_ObjectHideFlags: 0
  serializedVersion: 2
  m_Modification:
    m_TransformParent: {fileID: 743234679}
    m_Modifications:
    - target: {fileID: 4547245439958966, guid: 97fa5d2e177822c4084dda50fa0986c6, type: 3}
      propertyPath: m_LocalPosition.x
      value: -1.02
      objectReference: {fileID: 0}
    - target: {fileID: 4547245439958966, guid: 97fa5d2e177822c4084dda50fa0986c6, type: 3}
      propertyPath: m_LocalPosition.y
      value: 0
      objectReference: {fileID: 0}
    - target: {fileID: 4547245439958966, guid: 97fa5d2e177822c4084dda50fa0986c6, type: 3}
      propertyPath: m_LocalPosition.z
      value: -3.33
      objectReference: {fileID: 0}
    - target: {fileID: 4547245439958966, guid: 97fa5d2e177822c4084dda50fa0986c6, type: 3}
      propertyPath: m_LocalRotation.x
      value: 0.000000021855694
      objectReference: {fileID: 0}
    - target: {fileID: 4547245439958966, guid: 97fa5d2e177822c4084dda50fa0986c6, type: 3}
      propertyPath: m_LocalRotation.y
      value: 0
      objectReference: {fileID: 0}
    - target: {fileID: 4547245439958966, guid: 97fa5d2e177822c4084dda50fa0986c6, type: 3}
      propertyPath: m_LocalRotation.z
      value: -0
      objectReference: {fileID: 0}
    - target: {fileID: 4547245439958966, guid: 97fa5d2e177822c4084dda50fa0986c6, type: 3}
      propertyPath: m_LocalRotation.w
      value: 1
      objectReference: {fileID: 0}
    - target: {fileID: 4547245439958966, guid: 97fa5d2e177822c4084dda50fa0986c6, type: 3}
      propertyPath: m_RootOrder
      value: 1
      objectReference: {fileID: 0}
    m_RemovedComponents: []
  m_SourcePrefab: {fileID: 100100000, guid: 97fa5d2e177822c4084dda50fa0986c6, type: 3}
--- !u!4 &990692065 stripped
Transform:
  m_CorrespondingSourceObject: {fileID: 4547245439958966, guid: 97fa5d2e177822c4084dda50fa0986c6, type: 3}
  m_PrefabInstance: {fileID: 990692064}
  m_PrefabAsset: {fileID: 0}
--- !u!1001 &1341829247
PrefabInstance:
  m_ObjectHideFlags: 0
  serializedVersion: 2
  m_Modification:
    m_TransformParent: {fileID: 743234679}
    m_Modifications:
    - target: {fileID: 4557539474977832, guid: 4e43cdca195a1664d966791f28202d31, type: 3}
      propertyPath: m_LocalPosition.x
      value: 3.56
      objectReference: {fileID: 0}
    - target: {fileID: 4557539474977832, guid: 4e43cdca195a1664d966791f28202d31, type: 3}
      propertyPath: m_LocalPosition.y
      value: -0
      objectReference: {fileID: 0}
    - target: {fileID: 4557539474977832, guid: 4e43cdca195a1664d966791f28202d31, type: 3}
      propertyPath: m_LocalPosition.z
      value: 2.17
      objectReference: {fileID: 0}
    - target: {fileID: 4557539474977832, guid: 4e43cdca195a1664d966791f28202d31, type: 3}
      propertyPath: m_LocalRotation.x
      value: 0.000000021855694
      objectReference: {fileID: 0}
    - target: {fileID: 4557539474977832, guid: 4e43cdca195a1664d966791f28202d31, type: 3}
      propertyPath: m_LocalRotation.y
      value: 0
      objectReference: {fileID: 0}
    - target: {fileID: 4557539474977832, guid: 4e43cdca195a1664d966791f28202d31, type: 3}
      propertyPath: m_LocalRotation.z
      value: -0
      objectReference: {fileID: 0}
    - target: {fileID: 4557539474977832, guid: 4e43cdca195a1664d966791f28202d31, type: 3}
      propertyPath: m_LocalRotation.w
      value: 1
      objectReference: {fileID: 0}
    - target: {fileID: 4557539474977832, guid: 4e43cdca195a1664d966791f28202d31, type: 3}
      propertyPath: m_RootOrder
      value: 2
      objectReference: {fileID: 0}
    m_RemovedComponents: []
  m_SourcePrefab: {fileID: 100100000, guid: 4e43cdca195a1664d966791f28202d31, type: 3}
--- !u!4 &1341829248 stripped
Transform:
  m_CorrespondingSourceObject: {fileID: 4557539474977832, guid: 4e43cdca195a1664d966791f28202d31, type: 3}
  m_PrefabInstance: {fileID: 1341829247}
  m_PrefabAsset: {fileID: 0}
--- !u!1001 &1545888557
PrefabInstance:
  m_ObjectHideFlags: 0
  serializedVersion: 2
  m_Modification:
    m_TransformParent: {fileID: 743234679}
    m_Modifications:
    - target: {fileID: 4388997623891732, guid: a47d7ad739a48614babdcba6106ead5f, type: 3}
      propertyPath: m_LocalPosition.x
      value: -1.27
      objectReference: {fileID: 0}
    - target: {fileID: 4388997623891732, guid: a47d7ad739a48614babdcba6106ead5f, type: 3}
      propertyPath: m_LocalPosition.y
      value: 0
      objectReference: {fileID: 0}
    - target: {fileID: 4388997623891732, guid: a47d7ad739a48614babdcba6106ead5f, type: 3}
      propertyPath: m_LocalPosition.z
      value: -7.1
      objectReference: {fileID: 0}
    - target: {fileID: 4388997623891732, guid: a47d7ad739a48614babdcba6106ead5f, type: 3}
      propertyPath: m_LocalRotation.x
      value: 0.000000021855694
      objectReference: {fileID: 0}
    - target: {fileID: 4388997623891732, guid: a47d7ad739a48614babdcba6106ead5f, type: 3}
      propertyPath: m_LocalRotation.y
      value: 0
      objectReference: {fileID: 0}
    - target: {fileID: 4388997623891732, guid: a47d7ad739a48614babdcba6106ead5f, type: 3}
      propertyPath: m_LocalRotation.z
      value: -0
      objectReference: {fileID: 0}
    - target: {fileID: 4388997623891732, guid: a47d7ad739a48614babdcba6106ead5f, type: 3}
      propertyPath: m_LocalRotation.w
      value: 1
      objectReference: {fileID: 0}
    - target: {fileID: 4388997623891732, guid: a47d7ad739a48614babdcba6106ead5f, type: 3}
      propertyPath: m_RootOrder
      value: 0
      objectReference: {fileID: 0}
    m_RemovedComponents: []
  m_SourcePrefab: {fileID: 100100000, guid: a47d7ad739a48614babdcba6106ead5f, type: 3}
--- !u!4 &1545888558 stripped
Transform:
  m_CorrespondingSourceObject: {fileID: 4388997623891732, guid: a47d7ad739a48614babdcba6106ead5f, type: 3}
  m_PrefabInstance: {fileID: 1545888557}
  m_PrefabAsset: {fileID: 0}
--- !u!1001 &1660981605
PrefabInstance:
  m_ObjectHideFlags: 0
  serializedVersion: 2
  m_Modification:
    m_TransformParent: {fileID: 743234679}
    m_Modifications:
    - target: {fileID: 4781296669039938, guid: 4b46a3851f431d14fb24389945dd98d7, type: 3}
      propertyPath: m_LocalPosition.x
      value: 5.61
      objectReference: {fileID: 0}
    - target: {fileID: 4781296669039938, guid: 4b46a3851f431d14fb24389945dd98d7, type: 3}
      propertyPath: m_LocalPosition.y
      value: 0.14999998
      objectReference: {fileID: 0}
    - target: {fileID: 4781296669039938, guid: 4b46a3851f431d14fb24389945dd98d7, type: 3}
      propertyPath: m_LocalPosition.z
      value: -9.56
      objectReference: {fileID: 0}
    - target: {fileID: 4781296669039938, guid: 4b46a3851f431d14fb24389945dd98d7, type: 3}
      propertyPath: m_LocalRotation.x
      value: 0.00000002177622
      objectReference: {fileID: 0}
    - target: {fileID: 4781296669039938, guid: 4b46a3851f431d14fb24389945dd98d7, type: 3}
      propertyPath: m_LocalRotation.y
      value: 0.08520298
      objectReference: {fileID: 0}
    - target: {fileID: 4781296669039938, guid: 4b46a3851f431d14fb24389945dd98d7, type: 3}
      propertyPath: m_LocalRotation.z
      value: 0.0000000018621691
      objectReference: {fileID: 0}
    - target: {fileID: 4781296669039938, guid: 4b46a3851f431d14fb24389945dd98d7, type: 3}
      propertyPath: m_LocalRotation.w
      value: 0.99636364
      objectReference: {fileID: 0}
    - target: {fileID: 4781296669039938, guid: 4b46a3851f431d14fb24389945dd98d7, type: 3}
      propertyPath: m_RootOrder
      value: 6
      objectReference: {fileID: 0}
    - target: {fileID: 4781296669039938, guid: 4b46a3851f431d14fb24389945dd98d7, type: 3}
      propertyPath: m_LocalEulerAnglesHint.y
      value: 9.775001
      objectReference: {fileID: 0}
    m_RemovedComponents: []
  m_SourcePrefab: {fileID: 100100000, guid: 4b46a3851f431d14fb24389945dd98d7, type: 3}
--- !u!4 &1660981606 stripped
Transform:
  m_CorrespondingSourceObject: {fileID: 4781296669039938, guid: 4b46a3851f431d14fb24389945dd98d7, type: 3}
  m_PrefabInstance: {fileID: 1660981605}
  m_PrefabAsset: {fileID: 0}
